{
  "estudiantes": [
    {
      "nombre": "fede",
      "apellido": "hilchen",
      "email": "fede@gmail.com",
      "status": "Inactivo",
      "id": 4
    },
    {
      "nombre": "juampi",
      "apellido": "cao",
      "email": "juampico@gmail.com",
      "status": "Activo",
      "id": 5
    },
    {
      "nombre": "franco",
      "apellido": "simonazzi",
      "email": "francosimonazzi@hotmail.com",
      "status": "Activo",
      "id": 6
    },
    {
      "nombre": "hola",
      "apellido": "si",
      "email": "holasi@gmail.com",
      "status": "Activo",
      "id": 7
    }
  ]
}